…
## Concept Dictionary

The package includes a comprehensive dictionary of behavioral psychology
concepts:

``` r
# List all concepts
all_concepts <- bid_concepts()
all_concepts
#> # A tibble: 41 × 7
#>    concept            description category reference example implementation_tips
#>    <chr>              <chr>       <chr>    <chr>     <chr>   <chr>              
#>  1 Cognitive Load Th… Theory tha… Stage 1  Sweller … Reduci… Use tabs or collap…
#>  2 Hick's Law         Principle … Stage 1  Hick (19… Simpli… Reduce dropdown op…
#>  3 Visual Hierarchies Design pri… Stage 1  Tufte (1… Emphas… Use size, color, a…
#>  4 Data Storytelling… Framework … Stage 2  Matei & … Highli… Start with a clear…
#>  5 Processing Fluency The ease w… Stage 2  Alter & … Using … Use clean, consist…
#>  6 Emotion & Fluency… How emotio… Stage 2  Song & S… Applyi… Consider subtle co…
#>  7 Principle of Prox… Grouping r… Stage 3  Gestalt … Groupi… Place related cont…
#>  8 Dual-Processing T… Model dist… Stage 3  Tversky … Provid… Provide both KPI s…
#>  9 Default Effect     How defaul… Stage 3  Johnson … Pre-se… Pre-select the mos…
#> 10 Aesthetic-Usabili… The effect… Stage 3  Norman (… Creati… Ensure visual cohe…
#> # ℹ 31 more rows
#> # ℹ 1 more variable: related_concepts <chr>
…
